{
	"fieldSize": 10,
	"mines": 38,
	"map": [
		[
			"M:O",
			"M:O",
			"M:O",
			"R0",
			"R0",
			"R0",
			"R0",
			"R10",
			"M:O",
			"R30"
		],
		[
			"R39",
			"R39",
			"M:O",
			"R0",
			"R0",
			"R0",
			"M:O",
			"R30",
			"R30",
			"R30"
		],
		[
			"M:O",
			"M:O",
			"R100",
			"R100",
			"R0",
			"R0",
			"R0",
			"R30",
			"M:O",
			"R30"
		],
		[
			"M:O",
			"R139",
			"R139",
			"M:O",
			"R146",
			"M:O",
			"R0",
			"M:O",
			"R132",
			"R132"
		],
		[
			"M:O",
			"M:O",
			"M:O",
			"M:O",
			"R0",
			"R0",
			"R0",
			"R0",
			"M:O",
			"R132"
		],
		[
			"R189",
			"M:O",
			"M:O",
			"R194",
			"R194",
			"M:O",
			"R0",
			"R0",
			"R0",
			"R0"
		],
		[
			"M:O",
			"R237",
			"R218",
			"M:O",
			"R226",
			"R243",
			"R0",
			"R0",
			"R0",
			"R0"
		],
		[
			"M:O",
			"R237",
			"R240",
			"M:O",
			"R256",
			"R243",
			"M:O",
			"R0",
			"R0",
			"R0"
		],
		[
			"M:O",
			"M:O",
			"R254",
			"R254",
			"R256",
			"R243",
			"R260",
			"M:O",
			"R0",
			"R0"
		],
		[
			"R265",
			"R265",
			"R266",
			"M:O",
			"M:O",
			"M:O",
			"R0",
			"R0",
			"R0",
			"R0"
		]
	],
	"regionMax_index": 268,
	"continue": false
}