{
	"fieldSize": 10,
	"mines": 39,
	"map": [
		[
			"R10",
			"R10",
			"R10",
			"R30",
			"M:O",
			"M:O",
			"M:O",
			"M:O",
			"R40",
			"R40"
		],
		[
			"R10",
			"R10",
			"R10",
			"M:O",
			"M:O",
			"R68",
			"M:O",
			"R77",
			"R77",
			"M:O"
		],
		[
			"R10",
			"R10",
			"M:O",
			"M:O",
			"R101",
			"R109",
			"R109",
			"R109",
			"R109",
			"R133"
		],
		[
			"M:O",
			"R140",
			"M:O",
			"R147",
			"M:O",
			"R154",
			"M:O",
			"R117",
			"M:O",
			"R133"
		],
		[
			"M:O",
			"R167",
			"R167",
			"M:O",
			"R173",
			"R173",
			"M:O",
			"R179",
			"R179",
			"R161"
		],
		[
			"M:O",
			"R190",
			"R195",
			"M:O",
			"M:O",
			"R200",
			"M:O",
			"R205",
			"R205",
			"M:O"
		],
		[
			"R209",
			"R209",
			"R195",
			"R213",
			"R231",
			"M:O",
			"R217",
			"M:O",
			"R221",
			"R221"
		],
		[
			"R228",
			"M:O",
			"M:O",
			"M:O",
			"R231",
			"R231",
			"M:O",
			"R221",
			"R221",
			"R221"
		],
		[
			"R242",
			"M:O",
			"M:O",
			"R244",
			"R251",
			"M:O",
			"R221",
			"R221",
			"R221",
			"R221"
		],
		[
			"R249",
			"R249",
			"R250",
			"M:O",
			"R221",
			"R221",
			"R221",
			"R221",
			"R221",
			"R221"
		]
	],
	"regionMax_index": 255,
	"continue": false
}