{
	"fieldSize": 10,
	"mines": 25,
	"map": [
		[
			"R0",
			"M:F",
			"R59:O",
			"M:F",
			"R30",
			"R30",
			"R30",
			"M:O",
			"R50",
			"R50"
		],
		[
			"M:O",
			"R59:O",
			"R59:O",
			"R59:O",
			"R30",
			"R30",
			"R30",
			"R95",
			"R50",
			"R50"
		],
		[
			"R59:O",
			"R59:O",
			"R120",
			"M:O",
			"R128",
			"M:O",
			"R30",
			"R95",
			"M:O",
			"M:O"
		],
		[
			"R59:O",
			"M:F",
			"M:F",
			"M:F",
			"M:F",
			"R158:O",
			"R30:F",
			"R30",
			"R30",
			"R179"
		],
		[
			"R151:O",
			"R151:O",
			"R151:O",
			"R197:O",
			"R197:O",
			"R158:O",
			"M:F",
			"R203",
			"R203",
			"M:O"
		],
		[
			"M:F",
			"R151:O",
			"R151:O",
			"M:F",
			"M:F",
			"R151:O",
			"R151:O",
			"M:F",
			"M:F",
			"R151:O"
		],
		[
			"R151:O",
			"R151:O",
			"R151:O",
			"R235:O",
			"M:F",
			"R151:O",
			"R151:O",
			"R243:O",
			"R151:O",
			"R151:O"
		],
		[
			"R151:O",
			"R151:O",
			"R151:O",
			"R151:O",
			"R151:O",
			"R151:O",
			"R151:O",
			"M:F",
			"R151:O",
			"R151:O"
		],
		[
			"R151:O",
			"R151:O",
			"R151:O",
			"R151:O",
			"R151:O",
			"R151:O",
			"R151:O",
			"R151:O",
			"R151:O",
			"R151:O"
		],
		[
			"R151:O",
			"M:F",
			"R151:O",
			"R151:O",
			"R151:O",
			"R151:O",
			"R151:O",
			"R151:O",
			"R151:O",
			"R151:O"
		]
	],
	"regionMax_index": 288,
	"continue": false
}