{
	"fieldSize": 10,
	"mines": 25,
	"map": [
		[
			"R0",
			"M:O",
			"R10",
			"M:O",
			"R20",
			"M:O",
			"R30",
			"R30",
			"R30",
			"R30"
		],
		[
			"M:O",
			"R59",
			"M:O",
			"M:O",
			"R68",
			"M:O",
			"M:O",
			"R30",
			"R30",
			"R30"
		],
		[
			"R94",
			"M:O",
			"M:O",
			"R102",
			"M:O",
			"R110",
			"R147:O",
			"R30",
			"R30",
			"R30"
		],
		[
			"M:O",
			"R133",
			"R174",
			"M:O",
			"R147:O",
			"R147:O",
			"R147:O",
			"R30",
			"M:O",
			"R30"
		],
		[
			"M:O",
			"R133",
			"R147:O",
			"R147:O",
			"R147:O",
			"R147:O",
			"R147:O",
			"R147:O",
			"R147:O",
			"R147:O"
		],
		[
			"M:O",
			"M:O",
			"R147:O",
			"R147:O",
			"R147:O",
			"R147:O",
			"R147:O",
			"R147:O",
			"R147:O",
			"R234"
		],
		[
			"M:O",
			"R238",
			"R147:O",
			"R147:O",
			"R147:O",
			"R147:O",
			"R147:O",
			"M:O",
			"M:O",
			"R234"
		],
		[
			"R257:O",
			"R257:O",
			"M:F",
			"R147:O",
			"R147:O",
			"R147:O",
			"R147:O",
			"R269:O",
			"M:O",
			"R272"
		],
		[
			"M:F",
			"R147:O",
			"R147:O",
			"R147:O",
			"R147:O",
			"R147:O",
			"R147:O",
			"R147:O",
			"R147:O",
			"R147:O"
		],
		[
			"R147:O",
			"R147:O",
			"R147:O",
			"R147:O",
			"R147:O",
			"R147:O",
			"M:F",
			"R147:O",
			"M:F",
			"R147:O"
		]
	],
	"regionMax_index": 290,
	"continue": false
}