{
	"fieldSize": 10,
	"mines": 41,
	"map": [
		[
			"R0",
			"M:O",
			"M:O",
			"R10",
			"M:O",
			"M:O",
			"M:O",
			"R20",
			"R20",
			"M:O"
		],
		[
			"M:O",
			"R74",
			"M:O",
			"M:O",
			"M:O",
			"R48",
			"R20",
			"R20",
			"R66",
			"M:O"
		],
		[
			"M:O",
			"R74",
			"R82",
			"M:O",
			"R90:O",
			"R48:F",
			"R98:O",
			"R98:O",
			"M:O",
			"R114"
		],
		[
			"R121",
			"M:O",
			"R128",
			"R147:O",
			"R90:O",
			"M:F",
			"R98:O",
			"R98:O",
			"M:O",
			"M:O"
		],
		[
			"R121",
			"R121",
			"M:O",
			"R153:O",
			"R153:O",
			"R159:O",
			"R98:O",
			"R98:O",
			"M:O",
			"M:O"
		],
		[
			"M:O",
			"R170",
			"R170",
			"M:O",
			"M:O",
			"R159:O",
			"R159:O",
			"R175:O",
			"M:F",
			"M:F"
		],
		[
			"R179",
			"R179",
			"R183",
			"M:O",
			"R187:O",
			"M:F",
			"R159:O",
			"R159:O",
			"M:F",
			"R199:O"
		],
		[
			"R179",
			"M:O",
			"M:O",
			"R208:O",
			"R208:O",
			"R159:O",
			"M:F",
			"R159:O",
			"R159:O",
			"R159:O"
		],
		[
			"R216",
			"R220",
			"R220",
			"R205",
			"M:F",
			"R159:O",
			"R159:O",
			"R159:O",
			"R159:O",
			"R159:O"
		],
		[
			"M:O",
			"R220",
			"R220",
			"M:O",
			"R159:O",
			"R159:O",
			"R159:O",
			"R159:O",
			"R159:O",
			"R159:O"
		]
	],
	"regionMax_index": 235,
	"continue": false
}