{
	"fieldSize": 10,
	"mines": 38,
	"map": [
		[
			"M:O",
			"R0",
			"R0",
			"M:O",
			"R10",
			"R10",
			"R10",
			"M:O",
			"M:O",
			"M:O"
		],
		[
			"M:O",
			"M:O",
			"R29",
			"R29",
			"M:O",
			"R10",
			"R10",
			"R65",
			"M:O",
			"R74"
		],
		[
			"R82",
			"M:O",
			"R120",
			"M:O",
			"R90",
			"M:O",
			"M:O",
			"R98",
			"M:O",
			"R106"
		],
		[
			"R113",
			"M:O",
			"R127",
			"R134",
			"R90",
			"R90",
			"R148",
			"M:O",
			"M:O",
			"M:O"
		],
		[
			"M:O",
			"M:O",
			"R134",
			"R134",
			"M:O",
			"R90",
			"R90",
			"M:O",
			"M:O",
			"R172"
		],
		[
			"R177",
			"R182",
			"R182",
			"M:O",
			"R90",
			"R90",
			"R90",
			"M:O",
			"M:O",
			"R197"
		],
		[
			"M:O",
			"M:O",
			"R90",
			"R90",
			"R90:F",
			"R205:O",
			"R205:O",
			"R209:O",
			"R209:O",
			"R209:O"
		],
		[
			"M:O",
			"R216",
			"R90",
			"R90",
			"R222:O",
			"R222:O",
			"M:F",
			"R209:O",
			"R209:O",
			"R209:O"
		],
		[
			"R230",
			"M:O",
			"R90",
			"R90",
			"M:O",
			"M:F",
			"R209:O",
			"R209:O",
			"R209:O",
			"R209:O"
		],
		[
			"M:O",
			"R90",
			"R90",
			"R90",
			"R90",
			"R209:O",
			"R209:O",
			"R209:O",
			"R209:O",
			"R209:O"
		]
	],
	"regionMax_index": 243,
	"continue": false
}