{
	"fieldSize": 10,
	"mines": 45,
	"map": [
		[
			"R0",
			"M:O",
			"R10",
			"M:O",
			"M:O",
			"R48",
			"M:O",
			"M:O",
			"R30",
			"R30"
		],
		[
			"M:O",
			"R39",
			"R39",
			"M:O",
			"M:O",
			"R57",
			"R57",
			"R66",
			"R30",
			"R30"
		],
		[
			"R83",
			"M:O",
			"M:O",
			"M:O",
			"M:O",
			"M:O",
			"R91",
			"M:O",
			"M:O",
			"R99"
		],
		[
			"R83",
			"R113",
			"R113",
			"R120:O",
			"R127",
			"M:O",
			"R134",
			"M:O",
			"M:O",
			"M:O"
		],
		[
			"R83",
			"M:O",
			"M:O",
			"R120:O",
			"M:O",
			"M:O",
			"M:O",
			"R146",
			"R146",
			"R146"
		],
		[
			"M:O",
			"R181",
			"R181",
			"R120:O",
			"R167",
			"M:O",
			"R146",
			"R146",
			"R146",
			"R146"
		],
		[
			"M:O",
			"R181",
			"R181",
			"R181",
			"R193",
			"M:O",
			"M:O",
			"R146",
			"R146",
			"R146"
		],
		[
			"M:O",
			"R181",
			"R181",
			"R181",
			"M:O",
			"R210",
			"R213",
			"R146",
			"R146",
			"R146"
		],
		[
			"R224",
			"R224",
			"M:O",
			"R181",
			"M:O",
			"R210",
			"R213",
			"R216",
			"R226",
			"M:O"
		],
		[
			"R224",
			"M:O",
			"M:O",
			"R228",
			"R228",
			"R228",
			"M:O",
			"M:O",
			"M:O",
			"R230:O"
		]
	],
	"regionMax_index": 230,
	"continue": false
}