{
	"fieldSize": 10,
	"mines": 25,
	"map": [
		[
			"R0",
			"M:O",
			"R10",
			"M:O",
			"R20",
			"R20",
			"M:O",
			"R30",
			"R30",
			"M:O"
		],
		[
			"R39",
			"M:O",
			"R48:O",
			"R48:O",
			"R57",
			"M:O",
			"R66",
			"M:O",
			"R75",
			"M:O"
		],
		[
			"M:O",
			"M:O",
			"M:O",
			"R48:O",
			"R48:O",
			"R48:O",
			"M:F",
			"R48:O",
			"R48:O",
			"R48:O"
		],
		[
			"R114",
			"M:O",
			"R121",
			"R48:O",
			"R48:O",
			"R48:O",
			"R48:O",
			"R48:O",
			"R48:O",
			"R48:O"
		],
		[
			"R185",
			"M:O",
			"R121",
			"R168",
			"R168",
			"M:F",
			"R48:O",
			"R48:O",
			"R48:O",
			"R48:O"
		],
		[
			"R219",
			"R219",
			"R195",
			"M:O",
			"M:O",
			"R200",
			"R48:O",
			"R48:O",
			"R48:O",
			"R48:O"
		],
		[
			"R219",
			"R219",
			"M:O",
			"R231",
			"R245",
			"R200",
			"M:O",
			"R48:O",
			"R48:O",
			"R48:O"
		],
		[
			"R219",
			"R219",
			"M:O",
			"R227",
			"R245",
			"M:O",
			"M:F",
			"R48:O",
			"R48:O",
			"R48:O"
		],
		[
			"M:O",
			"R253",
			"R253",
			"M:O",
			"R48:O",
			"R48:O",
			"R48:O",
			"R48:O",
			"R48:O",
			"R48:O"
		],
		[
			"R262",
			"R262",
			"R253",
			"R253",
			"R264:F",
			"R48:O",
			"R48:O",
			"R48:O",
			"M:F",
			"R48:O"
		]
	],
	"regionMax_index": 268,
	"continue": false
}